<?xml version="1.0" encoding="UTF-8"?>
<svg width="22px" height="24px" viewBox="0 0 22 24" version="1.1" xmlns="http://www.w3.org/2000/svg" xmlns:xlink="http://www.w3.org/1999/xlink">
    <!-- Generator: Sketch 53 (72520) - https://sketchapp.com -->
    <title>Shape</title>
    <desc>Created with Sketch.</desc>
    <g id="Page-1" stroke="none" stroke-width="1" fill="none" fill-rule="evenodd">
        <g id="DashBoard-Proveedor-MENU-ABIERTO" transform="translate(-1000.000000, -17.000000)" fill="#8798AD" fill-rule="nonzero">
            <g id="icon-notifications" transform="translate(1000.000000, 16.000000)">
                <path d="M21.5927594,20.6179001 C18.9842766,19.4660905 18.8850502,14.5221447 18.883125,14.397399 C18.883125,14.0799408 18.883125,13.8418472 18.883125,13.6831181 C18.883125,13.1047804 18.883125,12.2372738 18.883125,11.0805984 C18.883125,7.88834749 16.8880891,5.14335364 14.0530782,3.9745636 C14.0469818,2.33333987 12.6798716,1 11.000082,1 C9.32025227,1 7.9531822,2.3334183 7.94704572,3.97448517 C5.1121551,5.14327521 3.11707906,7.88826906 3.11707906,11.08052 L3.11707906,14.3973206 C3.11523411,14.5220663 3.0159275,19.4660121 0.407364482,20.6178217 C0.110206724,20.7490772 -0.053111725,21.0653533 0.0155927209,21.3770411 C0.0842169515,21.6887681 0.366133793,21.9113966 0.692249292,21.9113966 L7.30520261,21.9113966 C7.44076655,22.6405767 7.79339322,23.3189329 8.33272112,23.8683866 C9.04904418,24.5981157 9.99634734,25 10.9999617,25 C12.0036562,25 12.9509594,24.5981157 13.6672022,23.8683866 C14.2066103,23.3188937 14.559237,22.6404982 14.6947207,21.9113966 L21.307674,21.9113966 C21.6337895,21.9113966 21.9156663,21.6888073 21.9843707,21.3770411 C22.0531554,21.0653533 21.8899172,20.7491164 21.5927594,20.6179001 Z M18.1566146,18.2494571 C18.4308308,19.0623238 18.8191132,19.8786416 19.3697113,20.557939 L2.63037243,20.557939 C3.18089037,19.87872 3.56917276,19.0624415 3.84338893,18.2494571 L18.1566146,18.2494571 Z M11.000082,2.35353605 C11.7599219,2.35353605 12.4023666,2.85275418 12.6033863,3.5332281 C12.085516,3.42820798 11.5492764,3.37283516 11.000082,3.37283516 C10.4508876,3.37283516 9.914648,3.42816877 9.39677772,3.5332281 C9.59783749,2.8527934 10.2402822,2.35353605 11.000082,2.35353605 Z M4.50139543,14.4014775 L4.50139543,11.0804808 C4.50139543,7.57681655 7.41666184,4.72637121 11.000082,4.72637121 C14.5835021,4.72637121 17.4987685,7.57681655 17.4987685,11.0804808 L17.4987685,14.4070069 C17.499691,14.5088113 17.5158945,15.5787381 17.7916749,16.8958426 L4.20832866,16.8958426 C4.48426946,15.5774832 4.50055317,14.505674 4.50139543,14.4014775 Z M11.000082,23.6465816 C9.94360575,23.6465816 9.02157042,22.9017936 8.7256159,21.9114358 L13.2744679,21.9114358 C12.9785133,22.9017936 12.0566385,23.6465816 11.000082,23.6465816 Z" id="Shape"></path>
            </g>
        </g>
    </g>
</svg>