<?xml version="1.0" encoding="UTF-8"?>
<svg width="48px" height="50px" viewBox="0 0 48 50" version="1.1" xmlns="http://www.w3.org/2000/svg" xmlns:xlink="http://www.w3.org/1999/xlink">
    <g id="Symbols" stroke="none" stroke-width="1" fill="none" fill-rule="evenodd">
        <g id="Panel-Menu" transform="translate(-21.000000, -17.000000)" fill="#0064FF">
            <g id="Group" transform="translate(21.000000, 17.000000)">
                <path d="M20.9837594,13.4645209 L30.6106983,11.0171928 C33.0272884,10.8040279 35.1565878,12.5977589 35.3688157,15.0244756 L37.9830531,45.0319072 C38.194201,47.4575391 36.4078144,49.5956968 33.9906843,49.8083192 L6.81579128,49.9829734 C4.39866117,50.1950535 2.2693618,48.4013225 2.05767391,45.9756906 L0.0169378327,22.5552165 C-0.194210038,20.1295846 1.59325659,17.9914269 4.0103867,17.7793469 L17.8143813,14.2699912 L18.4807661,17.648085 L6.96375679,19.9196741 C4.84309774,20.1068036 3.27325922,21.98298 3.45902615,24.1113744 L5.05910579,42.469047 C5.2443327,44.596899 7.11334237,46.1714986 9.23454144,45.9854539 L30.8299465,45.2911764 C32.9506055,45.1056742 34.519364,43.2294978 34.3341371,41.1011034 L32.3582034,18.4258928 C32.1729765,16.2980408 31.0961764,15.3916833 28.9755173,15.5777279 L21.7171068,17.0096752 L20.9837594,13.4645209 Z" id="Fill-4661"></path>
                <path d="M33.7424927,28.5954931 L25.8689923,30.9668041 C23.5052462,31.2624074 21.3545552,29.5509348 21.0657118,27.1434164 L17.0325038,6.39498542 C16.7426004,3.98692665 18.424252,1.79503115 20.7864082,1.49780666 L40.6826845,0.0333005411 C43.0459006,-0.262843132 45.1944716,1.44916993 45.484375,3.85668829 L47.9673683,20.5455731 C48.2578017,22.9541723 46.57721,25.1455274 44.2139939,25.4422115 L36.9054606,27.6427535 L36.6356967,24.4873103 L41.5407349,23.1465576 C43.5557489,22.8931062 44.9888363,21.0249152 44.7408019,18.9719046 L43.2536558,6.06047277 C43.0066815,4.00746216 41.4887961,3.20657727 39.473782,3.45840747 L23.8046893,4.06528584 C21.7907353,4.31819686 20.3581779,6.18692828 20.6040923,8.23939848 L23.7437407,23.6323846 C23.9907151,25.6848548 25.8239433,27.1444972 27.8378974,26.892667 L33.4637191,25.3546654 L33.7424927,28.5954931 Z" id="Fill-4662"></path>
            </g>
        </g>
    </g>
</svg>
